digraph "gson" {
    // Path: /Users/avincze/git/java11-20210309/modules/sample7/part4/mods/gson.jar
   "com.google.gson"                                  -> "com.google.gson (gson)";
   "com.google.gson"                                  -> "com.google.gson.internal (gson)";
   "com.google.gson"                                  -> "com.google.gson.internal.bind (gson)";
   "com.google.gson"                                  -> "com.google.gson.internal.bind.util (gson)";
   "com.google.gson"                                  -> "com.google.gson.reflect (gson)";
   "com.google.gson"                                  -> "com.google.gson.stream (gson)";
   "com.google.gson"                                  -> "java.io (java.base)";
   "com.google.gson"                                  -> "java.lang (java.base)";
   "com.google.gson"                                  -> "java.lang.annotation (java.base)";
   "com.google.gson"                                  -> "java.lang.invoke (java.base)";
   "com.google.gson"                                  -> "java.lang.reflect (java.base)";
   "com.google.gson"                                  -> "java.math (java.base)";
   "com.google.gson"                                  -> "java.sql (java.sql)";
   "com.google.gson"                                  -> "java.text (java.base)";
   "com.google.gson"                                  -> "java.util (java.base)";
   "com.google.gson"                                  -> "java.util.concurrent (java.base)";
   "com.google.gson"                                  -> "java.util.concurrent.atomic (java.base)";
   "com.google.gson.annotations"                      -> "java.lang (java.base)";
   "com.google.gson.annotations"                      -> "java.lang.annotation (java.base)";
   "com.google.gson.internal"                         -> "com.google.gson (gson)";
   "com.google.gson.internal"                         -> "com.google.gson.annotations (gson)";
   "com.google.gson.internal"                         -> "com.google.gson.internal (gson)";
   "com.google.gson.internal"                         -> "com.google.gson.internal.bind (gson)";
   "com.google.gson.internal"                         -> "com.google.gson.reflect (gson)";
   "com.google.gson.internal"                         -> "com.google.gson.stream (gson)";
   "com.google.gson.internal"                         -> "java.io (java.base)";
   "com.google.gson.internal"                         -> "java.lang (java.base)";
   "com.google.gson.internal"                         -> "java.lang.annotation (java.base)";
   "com.google.gson.internal"                         -> "java.lang.invoke (java.base)";
   "com.google.gson.internal"                         -> "java.lang.reflect (java.base)";
   "com.google.gson.internal"                         -> "java.math (java.base)";
   "com.google.gson.internal"                         -> "java.util (java.base)";
   "com.google.gson.internal"                         -> "java.util.concurrent (java.base)";
   "com.google.gson.internal.bind"                    -> "com.google.gson (gson)";
   "com.google.gson.internal.bind"                    -> "com.google.gson.annotations (gson)";
   "com.google.gson.internal.bind"                    -> "com.google.gson.internal (gson)";
   "com.google.gson.internal.bind"                    -> "com.google.gson.internal.bind (gson)";
   "com.google.gson.internal.bind"                    -> "com.google.gson.internal.bind.util (gson)";
   "com.google.gson.internal.bind"                    -> "com.google.gson.reflect (gson)";
   "com.google.gson.internal.bind"                    -> "com.google.gson.stream (gson)";
   "com.google.gson.internal.bind"                    -> "java.io (java.base)";
   "com.google.gson.internal.bind"                    -> "java.lang (java.base)";
   "com.google.gson.internal.bind"                    -> "java.lang.annotation (java.base)";
   "com.google.gson.internal.bind"                    -> "java.lang.invoke (java.base)";
   "com.google.gson.internal.bind"                    -> "java.lang.reflect (java.base)";
   "com.google.gson.internal.bind"                    -> "java.math (java.base)";
   "com.google.gson.internal.bind"                    -> "java.net (java.base)";
   "com.google.gson.internal.bind"                    -> "java.sql (java.sql)";
   "com.google.gson.internal.bind"                    -> "java.text (java.base)";
   "com.google.gson.internal.bind"                    -> "java.util (java.base)";
   "com.google.gson.internal.bind"                    -> "java.util.concurrent.atomic (java.base)";
   "com.google.gson.internal.bind.util"               -> "java.lang (java.base)";
   "com.google.gson.internal.bind.util"               -> "java.lang.invoke (java.base)";
   "com.google.gson.internal.bind.util"               -> "java.text (java.base)";
   "com.google.gson.internal.bind.util"               -> "java.util (java.base)";
   "com.google.gson.reflect"                          -> "com.google.gson.internal (gson)";
   "com.google.gson.reflect"                          -> "java.lang (java.base)";
   "com.google.gson.reflect"                          -> "java.lang.reflect (java.base)";
   "com.google.gson.reflect"                          -> "java.util (java.base)";
   "com.google.gson.stream"                           -> "com.google.gson.internal (gson)";
   "com.google.gson.stream"                           -> "com.google.gson.internal.bind (gson)";
   "com.google.gson.stream"                           -> "com.google.gson.stream (gson)";
   "com.google.gson.stream"                           -> "java.io (java.base)";
   "com.google.gson.stream"                           -> "java.lang (java.base)";
   "com.google.gson.stream"                           -> "java.lang.invoke (java.base)";
}
