digraph "summary" {
  "gson"                                             -> "java.base (java.base)";
  "gson"                                             -> "java.sql (java.sql)";
  "models"                                           -> "gson";
  "models"                                           -> "java.base (java.base)";
  "main"                                             -> "gson";
  "main"                                             -> "java.base (java.base)";
  "main"                                             -> "models";
}
